{
    "log": {
        "loglevel": "none"
    },
    "inbounds": [
        {
            "port": 8080,
            "protocol": "vless",
            "settings": {
                "clients": [
                    {
                        "id": "cb2ef9cb-fc3a-4f42-a206-0a59919a38d6",
                        "flow": "xtls-rprx-direct"
                    }
                ],
                "decryption": "none",
                "fallbacks": [
                    {
                        "dest": 3001
                    },
                    {
                        "path": "/trojan",
                        "dest": 3002
                    },
                    {
                        "path": "/vmess",
                        "dest": 3003
                    }
                ]
            },
            "streamSettings": {
                "network": "tcp"
            }
        },
        {
            "port": 3001,
            "listen": "127.0.0.1",
            "protocol": "vless",
            "settings": {
                "clients": [
                    {
                        "id": "cb2ef9cb-fc3a-4f42-a206-0a59919a38d6"
                    }
                ],
                "decryption": "none"
            },
            "streamSettings": {
                "network": "ws",
                "security": "none"
            }
        },
        {
            "port": 3002,
            "listen": "127.0.0.1",
            "protocol": "trojan",
            "settings": {
                "clients": [
                    {
                        "password": "cb2ef9cb-fc3a-4f42-a206-0a59919a38d6"
                    }
                ]
            },
            "streamSettings": {
                "network": "ws",
                "security": "none",
                "wsSettings": {
                    "path": "/trojan"
                }
            }
        },
        {
            "port": 3003,
            "listen": "127.0.0.1",
            "protocol": "vmess",
            "settings": {
                "clients": [
                    {
                        "id": "cb2ef9cb-fc3a-4f42-a206-0a59919a38d6"
                    }
                ]
            },
            "streamSettings": {
                "network": "ws",
                "security": "none",
                "wsSettings": {
                    "path": "/vmess"
                }
            }
        }
    ],
    "outbounds": [
        {
            "protocol": "freedom"
        }
    ]
}
